{
    "docs": [
        {
            "location": "/", 
            "text": "Willkomen zu den Hauser \n Partner Informationsportal\n\n\nHier sind alle unsere Dokumentationen und Informationen Online ersichtlich\n\n\nInhalte\n\n\nPlease see the \nproject license\n for further details.\n\n\n\n\nmkdocs new [dir-name]\n - Create a new project.\n\n\nmkdocs serve\n - Start the live-reloading docs server.\n\n\nmkdocs build\n - Build the documentation site.\n\n\nmkdocs help\n - Print this help message.\n\n\n\n\nProject layout\n\n\nmkdocs.yml    # The configuration file.\ndocs/\n    index.md  # The documentation homepage.\n    ...       # Other markdown pages, images and other files.", 
            "title": "Home"
        }, 
        {
            "location": "/#willkomen-zu-den-hauser-partner-informationsportal", 
            "text": "Hier sind alle unsere Dokumentationen und Informationen Online ersichtlich", 
            "title": "Willkomen zu den Hauser &amp; Partner Informationsportal"
        }, 
        {
            "location": "/#inhalte", 
            "text": "Please see the  project license  for further details.   mkdocs new [dir-name]  - Create a new project.  mkdocs serve  - Start the live-reloading docs server.  mkdocs build  - Build the documentation site.  mkdocs help  - Print this help message.", 
            "title": "Inhalte"
        }, 
        {
            "location": "/#project-layout", 
            "text": "mkdocs.yml    # The configuration file.\ndocs/\n    index.md  # The documentation homepage.\n    ...       # Other markdown pages, images and other files.", 
            "title": "Project layout"
        }, 
        {
            "location": "/richtlinien/managing-office/", 
            "text": "MANAGING OUR OFFICE\n\n\nZiel: Die folgenden 5 Regeln haben den Zweck, unsere B\u00fcros und Arbeitsplatz in einem pr\u00e4sentablen Zustand zu halten und uns eine effiziente Arbeitsweise zu erm\u00f6glichen:\n\n\nManage your desk\n\n\nClear desk policy\n\nAlle Arbeitsdokumente m\u00fcssen am Abend sauber aufger\u00e4umt und wichtige Dokumente unter Verschluss sein. Non-territoriale Arbeitspl\u00e4tze werden beim Verlassen vollst\u00e4ndig ger\u00e4umt.\n\n\nPers\u00f6nliche Dinge verstauen\n\nHandtaschen, Geldbeutel, Einkaufstaschen etc. verstauen. Jacken und M\u00e4ntel bitte auf Garderobe h\u00e4ngen.\n\n\nManage your work enviroment\n\n\nOrdentliche Verkabelung\n\nKabel werden in Kabelkan\u00e4le versorgt oder unter der Tischplatte ordentlich verkabelt.\n\n\nSauberer Arbeitsplatz\n\nOrdnerfarbe schwarz; einheitliche Beschriftung; Vorlagen sind verf\u00fcgbar. Snacks sind am Arbeitsplatz erlaubt, aber bitte keine Tellermen\u00fcs. Gl\u00e4ser und Tassen werden nach Gebrauch sofort wegger\u00e4umt und in der Sp\u00fclmaschine einger\u00e4umt.\n\n\nStapel vermeiden\n\n\u00dcbersichtliche Ordnung auf Ablagen und Schr\u00e4nken (innen und aussen); Stapel von Unterlagen vermeiden.\n\n\nSauberkeit der Sitzungsr\u00e4ume\n\nDer Sitzungsorganisatior ist nach Ende f\u00fcr die Sauberkeit des Sitzungsraums verantwortlich.\nGl\u00e4ser, Tassen und Getr\u00e4nke sind in die Teek\u00fcche zu retournieren und evtl. in die Geschirrsp\u00fchlmaschine zu stellen.\nBitte auch Bemusterungsgegenst\u00e4nde, Pl\u00e4ne und usw. wegr\u00e4umen.\n\n\nG\u00e4stetoilette\n\nUnsere G\u00e4stetoilette ist nur f\u00fcr unsere G\u00e4ste und die Gesch\u00e4ftsleitung.\n\n\nManage your appearance\n\n\nKleidung business- casual\n\nKleidung und Erscheinung soll der Arbeitst\u00e4tigkeit entsprechen. Professionalit\u00e4t soll f\u00fcr Kunden auch durch unsere \u00e4ussere Erscheinung\nsichtbar werden.\n\n\nManage your communication\n\n\nf\u00fcr Kunden von 08.00 \u2013 17.00 Uhr pers\u00f6nlich erreichbar sein\n\nJeder Bereich stellt die Telefonbeantwortung in der Zeit von 08.00 \u2013 17.00 Uhr sicher (exkl. Mittagszeit). Damit gew\u00e4hrleisten wir die\nErreichbarkeit f\u00fcr unsere Kunden. In dieser Zeit sollen die Telefone pers\u00f6nlich beantwortet werden.\nTelefone werden bei Abwesenheit auf die Zentrale umgestellt (Abwesenheit ank\u00fcndigen).\n\n\nKurze e-mails\n\nE-mail f\u00fcr kurze, sachliche Informationen verwenden; f\u00fcr emotionale Themen oder Konflikte ist e-mail ungeeignet. Verteiler auf die notwendigen Adressaten beschr\u00e4nken, keine Sammelmails. Betreff angeben.\n\n\nP\u00fcntklichkeit bei Sitzungen\n\nP\u00fcntklichkeit bei Sitzungen der Teilnehmer ist obligatorisch. Teilnehmer, welche nicht p\u00fcnktlich oder teilnehmen k\u00f6nnen haben sich beim\nSitzungsorganisator abzumelden.  Bei wichtigen Sitzungen ist ein Stellvertreter zu senden.\n\n\nManage your resources\n\n\nZeitplanung absprechen\n\nZeitplanung innerhalb des Teams besprechen und Abwesenheiten mitteilen. Im Kalender sind alle Abwesenheiten einzutragen.\n\n\nInternet f\u00fcr gesch\u00e4ftlichen Gebrauch\n\nInternet soll haupts\u00e4chlich f\u00fcr Gesch\u00e4ftszwecke genutzt werden.\n\n\nKeine Verschwendung\n\nKeine Papierverschwendung; Ausdrucke nur so viel notwendig; gemeinsame Druckerverwendung; gr\u00f6ssere Daten in Randzeiten nach\nAbsprache. Lampen l\u00f6schen bei l\u00e4ngerem Nichtgebrauch.", 
            "title": "Managing our Office"
        }, 
        {
            "location": "/richtlinien/managing-office/#managing-our-office", 
            "text": "Ziel: Die folgenden 5 Regeln haben den Zweck, unsere B\u00fcros und Arbeitsplatz in einem pr\u00e4sentablen Zustand zu halten und uns eine effiziente Arbeitsweise zu erm\u00f6glichen:", 
            "title": "MANAGING OUR OFFICE"
        }, 
        {
            "location": "/richtlinien/managing-office/#manage-your-desk", 
            "text": "Clear desk policy \nAlle Arbeitsdokumente m\u00fcssen am Abend sauber aufger\u00e4umt und wichtige Dokumente unter Verschluss sein. Non-territoriale Arbeitspl\u00e4tze werden beim Verlassen vollst\u00e4ndig ger\u00e4umt.  Pers\u00f6nliche Dinge verstauen \nHandtaschen, Geldbeutel, Einkaufstaschen etc. verstauen. Jacken und M\u00e4ntel bitte auf Garderobe h\u00e4ngen.", 
            "title": "Manage your desk"
        }, 
        {
            "location": "/richtlinien/managing-office/#manage-your-work-enviroment", 
            "text": "Ordentliche Verkabelung \nKabel werden in Kabelkan\u00e4le versorgt oder unter der Tischplatte ordentlich verkabelt.  Sauberer Arbeitsplatz \nOrdnerfarbe schwarz; einheitliche Beschriftung; Vorlagen sind verf\u00fcgbar. Snacks sind am Arbeitsplatz erlaubt, aber bitte keine Tellermen\u00fcs. Gl\u00e4ser und Tassen werden nach Gebrauch sofort wegger\u00e4umt und in der Sp\u00fclmaschine einger\u00e4umt.  Stapel vermeiden \n\u00dcbersichtliche Ordnung auf Ablagen und Schr\u00e4nken (innen und aussen); Stapel von Unterlagen vermeiden.  Sauberkeit der Sitzungsr\u00e4ume \nDer Sitzungsorganisatior ist nach Ende f\u00fcr die Sauberkeit des Sitzungsraums verantwortlich.\nGl\u00e4ser, Tassen und Getr\u00e4nke sind in die Teek\u00fcche zu retournieren und evtl. in die Geschirrsp\u00fchlmaschine zu stellen.\nBitte auch Bemusterungsgegenst\u00e4nde, Pl\u00e4ne und usw. wegr\u00e4umen.  G\u00e4stetoilette \nUnsere G\u00e4stetoilette ist nur f\u00fcr unsere G\u00e4ste und die Gesch\u00e4ftsleitung.", 
            "title": "Manage your work enviroment"
        }, 
        {
            "location": "/richtlinien/managing-office/#manage-your-appearance", 
            "text": "Kleidung business- casual \nKleidung und Erscheinung soll der Arbeitst\u00e4tigkeit entsprechen. Professionalit\u00e4t soll f\u00fcr Kunden auch durch unsere \u00e4ussere Erscheinung\nsichtbar werden.", 
            "title": "Manage your appearance"
        }, 
        {
            "location": "/richtlinien/managing-office/#manage-your-communication", 
            "text": "f\u00fcr Kunden von 08.00 \u2013 17.00 Uhr pers\u00f6nlich erreichbar sein \nJeder Bereich stellt die Telefonbeantwortung in der Zeit von 08.00 \u2013 17.00 Uhr sicher (exkl. Mittagszeit). Damit gew\u00e4hrleisten wir die\nErreichbarkeit f\u00fcr unsere Kunden. In dieser Zeit sollen die Telefone pers\u00f6nlich beantwortet werden.\nTelefone werden bei Abwesenheit auf die Zentrale umgestellt (Abwesenheit ank\u00fcndigen).  Kurze e-mails \nE-mail f\u00fcr kurze, sachliche Informationen verwenden; f\u00fcr emotionale Themen oder Konflikte ist e-mail ungeeignet. Verteiler auf die notwendigen Adressaten beschr\u00e4nken, keine Sammelmails. Betreff angeben.  P\u00fcntklichkeit bei Sitzungen \nP\u00fcntklichkeit bei Sitzungen der Teilnehmer ist obligatorisch. Teilnehmer, welche nicht p\u00fcnktlich oder teilnehmen k\u00f6nnen haben sich beim\nSitzungsorganisator abzumelden.  Bei wichtigen Sitzungen ist ein Stellvertreter zu senden.", 
            "title": "Manage your communication"
        }, 
        {
            "location": "/richtlinien/managing-office/#manage-your-resources", 
            "text": "Zeitplanung absprechen \nZeitplanung innerhalb des Teams besprechen und Abwesenheiten mitteilen. Im Kalender sind alle Abwesenheiten einzutragen.  Internet f\u00fcr gesch\u00e4ftlichen Gebrauch \nInternet soll haupts\u00e4chlich f\u00fcr Gesch\u00e4ftszwecke genutzt werden.  Keine Verschwendung \nKeine Papierverschwendung; Ausdrucke nur so viel notwendig; gemeinsame Druckerverwendung; gr\u00f6ssere Daten in Randzeiten nach\nAbsprache. Lampen l\u00f6schen bei l\u00e4ngerem Nichtgebrauch.", 
            "title": "Manage your resources"
        }, 
        {
            "location": "/richtlinien/urlaubs-und-absenzenplanung/", 
            "text": "URLAUBS- UND ABSENZENPLANUNG\n\n\nZiel: Klare Urlaubs- und Absenzenplanung sowie Vertretungsregelung.\n\n\nAllgemeine Regelungen:\n\n\n\n\nPer Ende eines Kalenderjahres werden alle geplanten Urlaube durch die Teamleiter und oder Vorgesetzten in den Urlaubsplaner aufgenommen.\n\n\nPer Ende Januar des neuen Kalenderjahres werden die beantragen Urlaube durch die Gesch\u00e4ftsf\u00fchrung gepr\u00fcft und entsprechend freigegeben.\n\n\nEine Freigabe der Urlaube durch die Teamleiter und Vorgesetzten ist auf maximal 2 Wochen begrenzt.\n\n\nAlle Urlaube \u00fcber 2 Wochen sowie auch unbezahlte Urlaube bed\u00fcrfen einer Freigabe der Gesch\u00e4ftsf\u00fchrung.\n\n\nEinzelne Urlaubstage k\u00f6nnen direkt von den Teamleitern und / oder Vorgesetzten freigegeben werden.\n\n\nBei allen Freigaben ist die jeweilige Projektauslastung sowie Einsatzplanung zu beachten.\n\n\nAlle Mitarbeiter mit schulpflichtigen Kindern haben Vorrang in der Urlaubsplanung.\n\n\nAbsenzantr\u00e4ge welche nicht freigegeben werden k\u00f6nnen, sind mit dem Vorgesetzten/Mitarbeiter bilateral zu kl\u00e4ren und ein angepasster Antrag zu stellen.\n\n\n\n\nStellvertretungen\n\n\n\n\nEs sind die jeweiligen Stellevertretungen in der Urlaubsplanung nach Abteilung zu beachten\n\n\nBei einer Stellvertretung d\u00fcrfen die Urlaub sich nicht nachfolgend \u00fcberschneiden.\n\n\nEbenfalls sind bei anderweitigen Absenzen und Kompensationen, die Stellvertretungen zu gew\u00e4hrleisten.\n\n\n\n\nUrlaubssperre\n\n\n\n\nEs sind die jeweils markierten Sperrmonate im Urlaubsplaner zu beachten.\n\n\nUrlaube w\u00e4hrend der Sperrmonaten werden ausschliesslich durch die Gesch\u00e4ftsf\u00fchrung freigegeben.\n\n\n\n\nUrlaubs- und Absenzenfreigabe\n\n\n\n\nS\u00e4mtlich Absenzen sind im Filemaker einzutragen.\n\n\nJede eingetragene Absenz wird vom Vorgesetzten via Filemaker freigegeben.\n\n\nAlle Absenzen, welche nicht mit dem Arbeitszeitmodell gedeckt sind, sind \u00fcber den Filemaker einzutragen und freizugeben.\n\n\n\n\nABWESENHEITSRICHTLINIE\n\n\nZiel: Klare Abwesenheitsregelung und Information an Kunden bei Abwesenheiten.\n\n\nAllgemeine Regelungen:\n\n\n\n\nBei einer Abwesenheit ab 1/2 Arbeitstag vom Arbeitsplatz werden \u00fcber dem Kalender die Abwesenheitsmeldungen eingestellt.\n\n\nBei Krankheit ist die Information an die Zentrale zu erfolgen. Diese wird die Vorgesetzten und Abteilung entsprechend informieren.\n\n\nStellvertreterregelungen m\u00fcssen bei Abwesenheit klar geregelt und kommuniziert sein.\n\n\nEmail Zugriff oder Weiterleitung muss gew\u00e4hrleistet sein.\n\n\nTelefon muss an die Zentrale oder auf das Diensthandy umgestellt werden. Eine Erreichbarkeit muss gew\u00e4hrleistet sein.\n\n\n\n\nAbwesenheitsmeldungen werden in 2 Sprachen, Deutsch und Englisch eingestellt.", 
            "title": "Urlaubs- und Absenzenplanung"
        }, 
        {
            "location": "/richtlinien/urlaubs-und-absenzenplanung/#urlaubs-und-absenzenplanung", 
            "text": "Ziel: Klare Urlaubs- und Absenzenplanung sowie Vertretungsregelung.", 
            "title": "URLAUBS- UND ABSENZENPLANUNG"
        }, 
        {
            "location": "/richtlinien/urlaubs-und-absenzenplanung/#allgemeine-regelungen", 
            "text": "Per Ende eines Kalenderjahres werden alle geplanten Urlaube durch die Teamleiter und oder Vorgesetzten in den Urlaubsplaner aufgenommen.  Per Ende Januar des neuen Kalenderjahres werden die beantragen Urlaube durch die Gesch\u00e4ftsf\u00fchrung gepr\u00fcft und entsprechend freigegeben.  Eine Freigabe der Urlaube durch die Teamleiter und Vorgesetzten ist auf maximal 2 Wochen begrenzt.  Alle Urlaube \u00fcber 2 Wochen sowie auch unbezahlte Urlaube bed\u00fcrfen einer Freigabe der Gesch\u00e4ftsf\u00fchrung.  Einzelne Urlaubstage k\u00f6nnen direkt von den Teamleitern und / oder Vorgesetzten freigegeben werden.  Bei allen Freigaben ist die jeweilige Projektauslastung sowie Einsatzplanung zu beachten.  Alle Mitarbeiter mit schulpflichtigen Kindern haben Vorrang in der Urlaubsplanung.  Absenzantr\u00e4ge welche nicht freigegeben werden k\u00f6nnen, sind mit dem Vorgesetzten/Mitarbeiter bilateral zu kl\u00e4ren und ein angepasster Antrag zu stellen.", 
            "title": "Allgemeine Regelungen:"
        }, 
        {
            "location": "/richtlinien/urlaubs-und-absenzenplanung/#stellvertretungen", 
            "text": "Es sind die jeweiligen Stellevertretungen in der Urlaubsplanung nach Abteilung zu beachten  Bei einer Stellvertretung d\u00fcrfen die Urlaub sich nicht nachfolgend \u00fcberschneiden.  Ebenfalls sind bei anderweitigen Absenzen und Kompensationen, die Stellvertretungen zu gew\u00e4hrleisten.", 
            "title": "Stellvertretungen"
        }, 
        {
            "location": "/richtlinien/urlaubs-und-absenzenplanung/#urlaubssperre", 
            "text": "Es sind die jeweils markierten Sperrmonate im Urlaubsplaner zu beachten.  Urlaube w\u00e4hrend der Sperrmonaten werden ausschliesslich durch die Gesch\u00e4ftsf\u00fchrung freigegeben.", 
            "title": "Urlaubssperre"
        }, 
        {
            "location": "/richtlinien/urlaubs-und-absenzenplanung/#urlaubs-und-absenzenfreigabe", 
            "text": "S\u00e4mtlich Absenzen sind im Filemaker einzutragen.  Jede eingetragene Absenz wird vom Vorgesetzten via Filemaker freigegeben.  Alle Absenzen, welche nicht mit dem Arbeitszeitmodell gedeckt sind, sind \u00fcber den Filemaker einzutragen und freizugeben.", 
            "title": "Urlaubs- und Absenzenfreigabe"
        }, 
        {
            "location": "/richtlinien/urlaubs-und-absenzenplanung/#abwesenheitsrichtlinie", 
            "text": "Ziel: Klare Abwesenheitsregelung und Information an Kunden bei Abwesenheiten.", 
            "title": "ABWESENHEITSRICHTLINIE"
        }, 
        {
            "location": "/richtlinien/urlaubs-und-absenzenplanung/#allgemeine-regelungen_1", 
            "text": "Bei einer Abwesenheit ab 1/2 Arbeitstag vom Arbeitsplatz werden \u00fcber dem Kalender die Abwesenheitsmeldungen eingestellt.  Bei Krankheit ist die Information an die Zentrale zu erfolgen. Diese wird die Vorgesetzten und Abteilung entsprechend informieren.  Stellvertreterregelungen m\u00fcssen bei Abwesenheit klar geregelt und kommuniziert sein.  Email Zugriff oder Weiterleitung muss gew\u00e4hrleistet sein.  Telefon muss an die Zentrale oder auf das Diensthandy umgestellt werden. Eine Erreichbarkeit muss gew\u00e4hrleistet sein.   Abwesenheitsmeldungen werden in 2 Sprachen, Deutsch und Englisch eingestellt.", 
            "title": "Allgemeine Regelungen:"
        }, 
        {
            "location": "/manuals/", 
            "text": "", 
            "title": "Manuals"
        }
    ]
}